<?xml version="1.0" encoding="UTF-8" standalone="no"?>
<!-- Created with Inkscape (http://www.inkscape.org/) -->

<svg
   xmlns:dc="http://purl.org/dc/elements/1.1/"
   xmlns:cc="http://creativecommons.org/ns#"
   xmlns:rdf="http://www.w3.org/1999/02/22-rdf-syntax-ns#"
   xmlns:svg="http://www.w3.org/2000/svg"
   xmlns="http://www.w3.org/2000/svg"
   xmlns:sodipodi="http://sodipodi.sourceforge.net/DTD/sodipodi-0.dtd"
   xmlns:inkscape="http://www.inkscape.org/namespaces/inkscape"
   width="744.09448"
   height="988"
   viewBox="0 0 744.09449 988.00002"
   id="svg4428"
   version="1.1"
   inkscape:version="0.91 r13725"
   sodipodi:docname="Logo.svg">
  <sodipodi:namedview
     id="base"
     pagecolor="#ffffff"
     bordercolor="#666666"
     borderopacity="1.0"
     inkscape:pageopacity="0.0"
     inkscape:pageshadow="2"
     inkscape:zoom="1.4"
     inkscape:cx="473.37643"
     inkscape:cy="571.77877"
     inkscape:document-units="px"
     inkscape:current-layer="layer1"
     showgrid="false"
     units="px"
     inkscape:window-width="1920"
     inkscape:window-height="1053"
     inkscape:window-x="0"
     inkscape:window-y="27"
     inkscape:window-maximized="1"
     fit-margin-top="0"
     fit-margin-left="0"
     fit-margin-right="0"
     fit-margin-bottom="0" />
  <defs
     id="defs4430">
    <filter
       style="color-interpolation-filters:sRGB"
       inkscape:label="Drop Shadow"
       id="filter5855-9-3">
      <feFlood
         flood-opacity="0.498039"
         flood-color="rgb(0,0,0)"
         result="flood"
         id="feFlood5857-3-6" />
      <feComposite
         in="flood"
         in2="SourceGraphic"
         operator="in"
         result="composite1"
         id="feComposite5859-1-7" />
      <feGaussianBlur
         in="composite1"
         stdDeviation="1"
         result="blur"
         id="feGaussianBlur5861-9-5" />
      <feOffset
         dx="2"
         dy="2"
         result="offset"
         id="feOffset5863-4-3" />
      <feComposite
         in="SourceGraphic"
         in2="offset"
         operator="over"
         result="composite2"
         id="feComposite5865-7-5" />
    </filter>
    <clipPath
       clipPathUnits="userSpaceOnUse"
       id="clipPath4563">
      <rect
         ry="9.0913725"
         rx="9.0913725"
         style="fill:#1f6dda;fill-opacity:1;stroke:none;stroke-width:0.93599999;stroke-miterlimit:4;stroke-dasharray:none;stroke-opacity:1"
         id="rect4565"
         width="83.842659"
         height="83.842659"
         x="504.57123"
         y="245.53786" />
    </clipPath>
    <clipPath
       clipPathUnits="userSpaceOnUse"
       id="clipPath4576">
      <circle
         r="49.497475"
         cx="489.92398"
         cy="373.82724"
         id="circle4578"
         style="fill:#1f6dda;fill-opacity:1;stroke:none;stroke-width:1;stroke-miterlimit:4;stroke-dasharray:none;stroke-opacity:1" />
    </clipPath>
    <clipPath
       clipPathUnits="userSpaceOnUse"
       id="clipPath4576-0">
      <circle
         r="49.497475"
         cx="489.92398"
         cy="373.82724"
         id="circle4578-1"
         style="fill:#1f6dda;fill-opacity:1;stroke:none;stroke-width:1;stroke-miterlimit:4;stroke-dasharray:none;stroke-opacity:1" />
    </clipPath>
  </defs>
  <metadata
     id="metadata4433">
    <rdf:RDF>
      <cc:Work
         rdf:about="">
        <dc:format>image/svg+xml</dc:format>
        <dc:type
           rdf:resource="http://purl.org/dc/dcmitype/StillImage" />
        <dc:title />
      </cc:Work>
    </rdf:RDF>
  </metadata>
  <g
     id="layer1"
     inkscape:groupmode="layer"
     inkscape:label="Layer 1">
    <rect
       style="fill:#ffffff;fill-opacity:1;stroke:none;stroke-width:1.28100002;stroke-miterlimit:4;stroke-dasharray:none;stroke-opacity:1"
       id="rect5627"
       width="744.09448"
       height="247"
       x="0"
       y="247" />
    <rect
       y="0"
       x="0"
       height="247"
       width="744.09448"
       id="rect3501"
       style="fill:#1f6dda;fill-opacity:1;stroke:none;stroke-width:1.28100002;stroke-miterlimit:4;stroke-dasharray:none;stroke-opacity:1" />
    <rect
       y="741"
       x="0"
       height="247"
       width="744.09448"
       id="rect5750"
       style="fill:#ffffff;fill-opacity:1;stroke:none;stroke-width:1.28100002;stroke-miterlimit:4;stroke-dasharray:none;stroke-opacity:1" />
    <rect
       style="fill:#000000;fill-opacity:1;stroke:none;stroke-width:1.28100002;stroke-miterlimit:4;stroke-dasharray:none;stroke-opacity:1"
       id="rect5752"
       width="744.09448"
       height="247"
       x="0"
       y="494" />
    <text
       id="text4486"
       y="389.57501"
       x="101.81693"
       style="font-style:normal;font-variant:normal;font-weight:normal;font-stretch:normal;font-size:25px;font-family:Ubuntu;-inkscape-font-specification:Ubuntu;fill:#1f6dda;fill-opacity:1;stroke:none;stroke-width:1;stroke-miterlimit:4;stroke-dasharray:none;stroke-opacity:1"
       xml:space="preserve"><tspan
         style="font-size:50px;fill:#1f6dda;fill-opacity:1"
         y="389.57501"
         x="101.81693"
         id="tspan4488"
         sodipodi:role="line">Flockademic</tspan></text>
    <circle
       style="fill:#1f6dda;fill-opacity:1;stroke:none;stroke-width:1;stroke-miterlimit:4;stroke-dasharray:none;stroke-opacity:1"
       id="path4502"
       cy="370.5"
       cx="588.4801"
       r="49.497475" />
    <text
       xml:space="preserve"
       style="font-style:normal;font-variant:normal;font-weight:500;font-stretch:normal;font-size:125px;font-family:Ubuntu;-inkscape-font-specification:'Ubuntu Medium';fill:#1f6dda;fill-opacity:1;stroke:none;stroke-width:1;stroke-miterlimit:4;stroke-dasharray:none;stroke-opacity:1"
       x="469.07477"
       y="404.82413"
       id="text4504"
       clip-path="url(#clipPath4576)"
       transform="translate(98.556094,-3.3272278)"><tspan
         sodipodi:role="line"
         id="tspan4506"
         x="469.07477"
         y="404.82413"
         style="font-weight:normal;font-size:81.25px;fill:#ffffff;fill-opacity:1">Flo</tspan></text>
    <g
       id="g4684"
       transform="translate(-23.436987,0)">
      <text
         id="text4460"
         y="142.575"
         x="125.25393"
         style="font-style:normal;font-variant:normal;font-weight:normal;font-stretch:normal;font-size:25px;font-family:Ubuntu;-inkscape-font-specification:Ubuntu;fill:#1f6dda;fill-opacity:1;stroke:none;stroke-width:1;stroke-miterlimit:4;stroke-dasharray:none;stroke-opacity:1"
         xml:space="preserve"><tspan
           style="font-size:50px;fill:#ffffff;fill-opacity:1"
           y="142.575"
           x="125.25393"
           id="tspan4462"
           sodipodi:role="line">Flockademic</tspan></text>
      <circle
         style="fill:#ffffff;fill-opacity:1;stroke:none;stroke-width:1;stroke-miterlimit:4;stroke-dasharray:none;stroke-opacity:1"
         id="circle4610"
         cy="123.5"
         cx="611.91705"
         r="49.497475" />
    </g>
    <text
       clip-path="url(#clipPath4576)"
       id="text4612"
       y="404.82413"
       x="469.07477"
       style="font-style:normal;font-variant:normal;font-weight:500;font-stretch:normal;font-size:125px;font-family:Ubuntu;-inkscape-font-specification:'Ubuntu Medium';fill:#1f6dda;fill-opacity:1;stroke:none;stroke-width:1;stroke-miterlimit:4;stroke-dasharray:none;stroke-opacity:1"
       xml:space="preserve"
       transform="translate(98.556094,-250.32724)"><tspan
         style="font-weight:normal;font-size:81.25px;fill:#1f6dda;fill-opacity:1"
         y="404.82413"
         x="469.07477"
         id="tspan4614"
         sodipodi:role="line">Flo</tspan></text>
    <g
       id="g4668"
       transform="translate(-122.23926,0)">
      <text
         id="text4460-7"
         y="636.57501"
         x="224.05618"
         style="font-style:normal;font-variant:normal;font-weight:normal;font-stretch:normal;font-size:25px;font-family:Ubuntu;-inkscape-font-specification:Ubuntu;fill:#1f6dda;fill-opacity:1;stroke:none;stroke-width:1;stroke-miterlimit:4;stroke-dasharray:none;stroke-opacity:1"
         xml:space="preserve"><tspan
           style="font-size:50px;fill:#ffffff;fill-opacity:1"
           y="636.57501"
           x="224.05618"
           id="tspan4462-8"
           sodipodi:role="line">Flockademic</tspan></text>
      <g
         id="g4627"
         transform="translate(98.802274,0)">
        <circle
           r="49.497475"
           cx="611.91705"
           cy="617.5"
           id="circle4610-9"
           style="fill:#ffffff;fill-opacity:1;stroke:none;stroke-width:1;stroke-miterlimit:4;stroke-dasharray:none;stroke-opacity:1" />
        <text
           clip-path="url(#clipPath4576-0)"
           id="text4612-1"
           y="404.82413"
           x="469.07477"
           style="font-style:normal;font-variant:normal;font-weight:500;font-stretch:normal;font-size:125px;font-family:Ubuntu;-inkscape-font-specification:'Ubuntu Medium';fill:#1f6dda;fill-opacity:1;stroke:none;stroke-width:1;stroke-miterlimit:4;stroke-dasharray:none;stroke-opacity:1"
           xml:space="preserve"
           transform="translate(121.99309,243.67276)"><tspan
             style="font-weight:normal;font-size:81.25px;fill:#000000;fill-opacity:1"
             y="404.82413"
             x="469.07477"
             id="tspan4614-5"
             sodipodi:role="line">Flo</tspan></text>
      </g>
    </g>
    <text
       xml:space="preserve"
       style="font-style:normal;font-variant:normal;font-weight:normal;font-stretch:normal;font-size:25px;font-family:Ubuntu;-inkscape-font-specification:Ubuntu;fill:#1f6dda;fill-opacity:1;stroke:none;stroke-width:1;stroke-miterlimit:4;stroke-dasharray:none;stroke-opacity:1"
       x="101.81693"
       y="883.57501"
       id="text4698"><tspan
         sodipodi:role="line"
         id="tspan4700"
         x="101.81693"
         y="883.57501"
         style="font-size:50px;fill:#000000;fill-opacity:1">Flockademic</tspan></text>
    <g
       id="g4746"
       transform="translate(0,402.00001)">
      <circle
         style="fill:#000000;fill-opacity:1;stroke:none;stroke-width:1;stroke-miterlimit:4;stroke-dasharray:none;stroke-opacity:1"
         id="circle4740"
         cy="462.5"
         cx="588.4801"
         r="49.497475" />
      <text
         xml:space="preserve"
         style="font-style:normal;font-variant:normal;font-weight:500;font-stretch:normal;font-size:125px;font-family:Ubuntu;-inkscape-font-specification:'Ubuntu Medium';fill:#1f6dda;fill-opacity:1;stroke:none;stroke-width:1;stroke-miterlimit:4;stroke-dasharray:none;stroke-opacity:1"
         x="469.07477"
         y="404.82413"
         id="text4742"
         clip-path="url(#clipPath4576)"
         transform="translate(98.556094,88.672772)"><tspan
           sodipodi:role="line"
           id="tspan4744"
           x="469.07477"
           y="404.82413"
           style="font-weight:normal;font-size:81.25px;fill:#ffffff;fill-opacity:1">Flo</tspan></text>
    </g>
  </g>
</svg>
